[
	{
		"route": "main",
		"layout": "layout/view1.html",
		"parameters" : {
			"heading" : "Heading Here",
			"body-content" : "Body content here"
		}
	},
	{
		"route": "test1",
		"parent": "main",
		"title" : "Markdown Example",
		"parameters" : {
			"heading" : "Markdown Example",
			"body-content" : "pages/markdown1.md"
		}
	},
	{
		"route": "test2",
		"layout": "layout/view2.html",
		"parameters" : {
			"attrib3" : "leftx.html",
			"attrib2" : "right.html"
		}
	}
]
